C:\Users\kila\eclipse-workspace\automation\src\test\java\AutomationProject\automation\LoginSteps.java
C:\Users\kila\eclipse-workspace\automation\src\test\java\AutomationProject\automation\TestRule.java
C:\Users\kila\eclipse-workspace\automation\src\test\java\AutomationProject\automation\LoginMap.java
C:\Users\kila\eclipse-workspace\automation\src\test\java\AutomationProject\automation\HomeTest.java
C:\Users\kila\eclipse-workspace\automation\src\test\java\AutomationProject\automation\ResumoMensalMap.java
C:\Users\kila\eclipse-workspace\automation\src\test\java\AutomationProject\automation\ResumoMensalSteps.java
C:\Users\kila\eclipse-workspace\automation\src\test\java\AutomationProject\automation\HomePage.java
C:\Users\kila\eclipse-workspace\automation\src\test\java\AutomationProject\automation\HomeMap.java
C:\Users\kila\eclipse-workspace\automation\src\test\java\AutomationProject\automation\MovimentacaoMap.java
C:\Users\kila\eclipse-workspace\automation\src\test\java\AutomationProject\automation\HomeSteps.java
C:\Users\kila\eclipse-workspace\automation\src\test\java\AutomationProject\automation\ResumoMensalTest.java
C:\Users\kila\eclipse-workspace\automation\src\test\java\AutomationProject\automation\MovimentacaoSteps.java
C:\Users\kila\eclipse-workspace\automation\src\test\java\AutomationProject\automation\MovimentacaoTest.java
C:\Users\kila\eclipse-workspace\automation\src\test\java\AutomationProject\automation\MovimentacaoPage.java
C:\Users\kila\eclipse-workspace\automation\src\test\java\AutomationProject\automation\LoginTest.java
C:\Users\kila\eclipse-workspace\automation\src\test\java\AutomationProject\automation\ResumoMensalPage.java
C:\Users\kila\eclipse-workspace\automation\src\test\java\AutomationProject\automation\LoginPage.java
