-------------------------------------------------------------------------------
Test set: AutomationProject.automation.MovimentacaoTest
-------------------------------------------------------------------------------
Tests run: 26, Failures: 0, Errors: 0, Skipped: 0, Time elapsed: 19.314 sec
